CONFIG_ID,PART_ID,PART_QTY
1,2,1
1,5,1
1,10,1
1,16,1
1,19,1
1,21,1
1,26,2
2,3,1
2,5,1
2,7,1
2,15,1
2,19,1
2,21,1
2,25,2
3,1,1
3,5,1
3,8,1
3,15,1
3,19,1
3,21,1
3,26,2
4,2,1
4,5,1
4,9,1
4,15,1
4,18,1
4,23,1
4,25,2
5,3,1
5,5,1
5,9,1
5,14,1
5,18,1
5,23,1
5,25,2
6,2,1
6,5,1
6,11,1
6,16,1
6,18,1
6,21,1
6,25,2
7,1,1
7,5,1
7,11,1
7,14,1
7,19,1
7,23,1
7,26,2
8,3,1
8,5,1
8,7,1
8,16,1
8,18,1
8,23,1
8,25,2
9,2,1
9,5,1
9,10,1
9,15,1
9,19,1
9,21,1
9,25,2
10,2,1
10,5,1
10,8,1
10,13,1
10,19,1
10,22,1
10,26,2
11,2,1
11,5,1
11,7,1
11,13,1
11,18,1
11,21,1
11,26,2
12,1,1
12,5,1
12,7,1
12,15,1
12,18,1
12,23,1
12,25,2
13,2,1
13,5,1
13,10,1
13,16,1
13,18,1
13,22,1
13,26,2
14,1,1
14,5,1
14,11,1
14,16,1
14,18,1
14,23,1
14,26,2
15,2,1
15,5,1
15,8,1
15,13,1
15,18,1
15,22,1
15,26,2
16,3,1
16,5,1
16,9,1
16,15,1
16,19,1
16,23,1
16,26,2
17,2,1
17,5,1
17,8,1
17,16,1
17,19,1
17,22,1
17,25,2
18,2,1
18,5,1
18,11,1
18,14,1
18,18,1
18,21,1
18,25,2
19,2,1
19,5,1
19,11,1
19,14,1
19,19,1
19,22,1
19,26,2
20,2,1
20,5,1
20,9,1
20,15,1
20,18,1
20,22,1
20,26,2
21,3,1
21,5,1
21,11,1
21,14,1
21,19,1
21,23,1
21,25,2
22,1,1
22,5,1
22,8,1
22,15,1
22,18,1
22,23,1
22,26,2
23,3,1
23,5,1
23,7,1
23,14,1
23,18,1
23,23,1
23,26,2
