CONTACT_ID,CONTACT_STREET_ADDRESS,CONTACT_PHONE,ZIPCODE
1,401 2nd Ave S,206-555-7542,98104
2,16541 5th ave NE,206-555-4846,98155
3,15482 Pasadena Ave,714-321-5555,92780
4,15884 Rose Ave,714-544-5566,95030
5,20625 S Reeder Ln,503-655-1166,97045
